{
   "@cometEmailId": "kevin_dbrown@hotmail.com",
   "Cropland": {
      "@Name": "5707032208343040_0",
      "GEOM": {
         "@SRID": "4326",
         "@AREA": "1",
         "#text": "POLYGON((-76.1273789405823 39.3109671619225, -76.1282420654567 39.310029596621, -76.1285600767193 39.3096077392493, -76.1279274330046 39.3093460847422, -76.1271173448519 39.308933807736, -76.1261380120643 39.3085168989679, -76.1256074707281 39.3082358299973, -76.1224588649075 39.3068128738662, -76.1221825674645 39.3068894777954, -76.1213589785233 39.3083978845732, -76.1212189008603 39.3088857729244, -76.1213035256601 39.3090856614665, -76.1217249639371 39.3093273076046, -76.1221890072178 39.3093171530225, -76.1227423263578 39.3088976430863, -76.1231365210393 39.3090061370353, -76.1236355932047 39.3093063036276, -76.1273789405823 39.3109671619225))"
      },
      "Pre-1980": "Upland Non-Irrigated (Pre 1980s)",
      "CRP": "No",
      "CRPType": "None",
      "Year1980-2000": "Non-Irrigated: Annual Crops in Rotation",
      "Year1980-2000_Tillage": "Intensive tillage",
      "CRPStartYear": [],
      "CRPEndYear": [],
      "PreCRPManagement": [],
      "PreCRPTillage": [],
      "PostCRPManagement": [],
      "PostCRPTillage": [],
      "CropScenario": [
         				{
					"@Name": "Current",
					"CropYear": [
						{
							"@Year": 2000,
							"Crop": [
								{
									"@CropNumber": 1,
									"CropName": "Soybean",
									"PlantingDate": "05/04/2000",
									"ContinueFromPreviousYear": "N",
									"HarvestList": {
										"HarvestEvent": [
											{
												"HarvestDate": "09/19/2000",
												"Grain": "Yes",
												"yield": 0.0,
												"StrawStoverHayRemoval": 0
											}
										]
									},
									"TillageList": {
										"TillageEvent": [
											{
												"TillageDate": "02/04/2000",
												"TillageType": "Mulch Tillage"
											},
											{
												"TillageDate": "03/04/2000",
												"TillageType": "Growing Season Cultivation"
											},
											{
												"TillageDate": "03/07/2000",
												"TillageType": "Growing Season Cultivation"
											},
											{
												"TillageDate": "03/08/2000",
												"TillageType": "Growing Season Cultivation"
											},
											{
												"TillageDate": "10/04/2000",
												"TillageType": "Ridge Tillage"
											}
										]
									},
									"NApplicationList": {
										"NApplicationEvent": [
											{
												"NApplicationDate": "03/04/2000",
												"NApplicationType": "Urea (46-00-00)",
												"NApplicationAmount": 15.049989042929657,
												"NApplicationMethod": "Incorporate / Inject",
												"EEP": "None"
											},
											{
												"NApplicationDate": "06/03/2000",
												"NApplicationType": "Urea (46-00-00)",
												"NApplicationAmount": 22.999983254975509,
												"NApplicationMethod": "Incorporate / Inject",
												"EEP": "None"
											}
										]
									},
									"OMADApplicationList": {
										"OMADApplicationEvent": []
									},
									"IrrigationList": {
										"IrrigationEvent": []
									},
									"BurnEvent": {
										"BurnTime": "No burning"
									},
									"LimingEvent": null,
									"GrazingList": {
										"GrazingEvent": []
									},
									"Prune": "No",
									"Renew": "No"
								}
							]
						},
						{
							"@Year": 2001,
							"Crop": [
								{
									"@CropNumber": 1,
									"CropName": "Sorghum",
									"PlantingDate": "03/21/2001",
									"ContinueFromPreviousYear": "N",
									"HarvestList": {
										"HarvestEvent": [
											{
												"HarvestDate": "07/16/2001",
												"Grain": "Yes",
												"yield": 0.0,
												"StrawStoverHayRemoval": 0
											}
										]
									},
									"TillageList": {
										"TillageEvent": [
											{
												"TillageDate": "02/08/2001",
												"TillageType": "Growing Season Cultivation"
											},
											{
												"TillageDate": "02/14/2001",
												"TillageType": "Growing Season Cultivation"
											},
											{
												"TillageDate": "08/17/2001",
												"TillageType": "Growing Season Cultivation"
											},
											{
												"TillageDate": "09/14/2001",
												"TillageType": "Growing Season Cultivation"
											},
											{
												"TillageDate": "11/07/2001",
												"TillageType": "Growing Season Cultivation"
											}
										]
									},
									"NApplicationList": {
										"NApplicationEvent": [
											{
												"NApplicationDate": "02/08/2001",
												"NApplicationType": "Urea (46-00-00)",
												"NApplicationAmount": 118.8999134355038,
												"NApplicationMethod": "Incorporate / Inject",
												"EEP": "None"
											},
											{
												"NApplicationDate": "04/19/2001",
												"NApplicationType": "Urea (46-00-00)",
												"NApplicationAmount": 45.999966509951018,
												"NApplicationMethod": "Incorporate / Inject",
												"EEP": "None"
											}
										]
									},
									"OMADApplicationList": {
										"OMADApplicationEvent": []
									},
									"IrrigationList": {
										"IrrigationEvent": []
									},
									"BurnEvent": {
										"BurnTime": "No burning"
									},
									"LimingEvent": null,
									"GrazingList": {
										"GrazingEvent": []
									},
									"Prune": "No",
									"Renew": "No"
								}
							]
						},
						{
							"@Year": 2002,
							"Crop": [
								{
									"@CropNumber": 1,
									"CropName": "Sorghum",
									"PlantingDate": "04/19/2002",
									"ContinueFromPreviousYear": "N",
									"HarvestList": {
										"HarvestEvent": [
											{
												"HarvestDate": "08/08/2002",
												"Grain": "Yes",
												"yield": 0.0,
												"StrawStoverHayRemoval": 0
											}
										]
									},
									"TillageList": {
										"TillageEvent": [
											{
												"TillageDate": "02/07/2002",
												"TillageType": "Growing Season Cultivation"
											},
											{
												"TillageDate": "03/10/2002",
												"TillageType": "Ridge Tillage"
											},
											{
												"TillageDate": "07/08/2002",
												"TillageType": "Growing Season Cultivation"
											},
											{
												"TillageDate": "07/10/2002",
												"TillageType": "Growing Season Cultivation"
											},
											{
												"TillageDate": "10/18/2002",
												"TillageType": "Growing Season Cultivation"
											}
										]
									},
									"NApplicationList": {
										"NApplicationEvent": [
											{
												"NApplicationDate": "02/06/2002",
												"NApplicationType": "Urea (46-00-00)",
												"NApplicationAmount": 120.87991199397563,
												"NApplicationMethod": "Incorporate / Inject",
												"EEP": "None"
											}
										]
									},
									"OMADApplicationList": {
										"OMADApplicationEvent": []
									},
									"IrrigationList": {
										"IrrigationEvent": []
									},
									"BurnEvent": {
										"BurnTime": "No burning"
									},
									"LimingEvent": null,
									"GrazingList": {
										"GrazingEvent": []
									},
									"Prune": "No",
									"Renew": "No"
								}
							]
						},
						{
							"@Year": 2003,
							"Crop": [
								{
									"@CropNumber": 1,
									"CropName": "Soybean",
									"PlantingDate": "05/04/2003",
									"ContinueFromPreviousYear": "N",
									"HarvestList": {
										"HarvestEvent": [
											{
												"HarvestDate": "09/19/2003",
												"Grain": "Yes",
												"yield": 0.0,
												"StrawStoverHayRemoval": 0
											}
										]
									},
									"TillageList": {
										"TillageEvent": [
											{
												"TillageDate": "02/04/2003",
												"TillageType": "Mulch Tillage"
											},
											{
												"TillageDate": "03/04/2003",
												"TillageType": "Growing Season Cultivation"
											},
											{
												"TillageDate": "03/07/2003",
												"TillageType": "Growing Season Cultivation"
											},
											{
												"TillageDate": "03/08/2003",
												"TillageType": "Growing Season Cultivation"
											},
											{
												"TillageDate": "10/04/2003",
												"TillageType": "Ridge Tillage"
											}
										]
									},
									"NApplicationList": {
										"NApplicationEvent": [
											{
												"NApplicationDate": "03/04/2003",
												"NApplicationType": "Urea (46-00-00)",
												"NApplicationAmount": 15.049989042929657,
												"NApplicationMethod": "Incorporate / Inject",
												"EEP": "None"
											},
											{
												"NApplicationDate": "06/03/2003",
												"NApplicationType": "Urea (46-00-00)",
												"NApplicationAmount": 22.999983254975509,
												"NApplicationMethod": "Incorporate / Inject",
												"EEP": "None"
											}
										]
									},
									"OMADApplicationList": {
										"OMADApplicationEvent": []
									},
									"IrrigationList": {
										"IrrigationEvent": []
									},
									"BurnEvent": {
										"BurnTime": "No burning"
									},
									"LimingEvent": null,
									"GrazingList": {
										"GrazingEvent": []
									},
									"Prune": "No",
									"Renew": "No"
								}
							]
						},
						{
							"@Year": 2004,
							"Crop": [
								{
									"@CropNumber": 1,
									"CropName": "Sorghum",
									"PlantingDate": "03/21/2004",
									"ContinueFromPreviousYear": "N",
									"HarvestList": {
										"HarvestEvent": [
											{
												"HarvestDate": "07/16/2004",
												"Grain": "Yes",
												"yield": 0.0,
												"StrawStoverHayRemoval": 0
											}
										]
									},
									"TillageList": {
										"TillageEvent": [
											{
												"TillageDate": "02/08/2004",
												"TillageType": "Growing Season Cultivation"
											},
											{
												"TillageDate": "02/14/2004",
												"TillageType": "Growing Season Cultivation"
											},
											{
												"TillageDate": "08/17/2004",
												"TillageType": "Growing Season Cultivation"
											},
											{
												"TillageDate": "09/14/2004",
												"TillageType": "Growing Season Cultivation"
											},
											{
												"TillageDate": "11/07/2004",
												"TillageType": "Growing Season Cultivation"
											}
										]
									},
									"NApplicationList": {
										"NApplicationEvent": [
											{
												"NApplicationDate": "02/08/2004",
												"NApplicationType": "Urea (46-00-00)",
												"NApplicationAmount": 118.8999134355038,
												"NApplicationMethod": "Incorporate / Inject",
												"EEP": "None"
											},
											{
												"NApplicationDate": "04/19/2004",
												"NApplicationType": "Urea (46-00-00)",
												"NApplicationAmount": 45.999966509951018,
												"NApplicationMethod": "Incorporate / Inject",
												"EEP": "None"
											}
										]
									},
									"OMADApplicationList": {
										"OMADApplicationEvent": []
									},
									"IrrigationList": {
										"IrrigationEvent": []
									},
									"BurnEvent": {
										"BurnTime": "No burning"
									},
									"LimingEvent": null,
									"GrazingList": {
										"GrazingEvent": []
									},
									"Prune": "No",
									"Renew": "No"
								}
							]
						},
						{
							"@Year": 2005,
							"Crop": [
								{
									"@CropNumber": 1,
									"CropName": "Sorghum",
									"PlantingDate": "04/19/2005",
									"ContinueFromPreviousYear": "N",
									"HarvestList": {
										"HarvestEvent": [
											{
												"HarvestDate": "08/08/2005",
												"Grain": "Yes",
												"yield": 0.0,
												"StrawStoverHayRemoval": 0
											}
										]
									},
									"TillageList": {
										"TillageEvent": [
											{
												"TillageDate": "02/07/2005",
												"TillageType": "Growing Season Cultivation"
											},
											{
												"TillageDate": "03/10/2005",
												"TillageType": "Ridge Tillage"
											},
											{
												"TillageDate": "07/08/2005",
												"TillageType": "Growing Season Cultivation"
											},
											{
												"TillageDate": "07/10/2005",
												"TillageType": "Growing Season Cultivation"
											},
											{
												"TillageDate": "10/18/2005",
												"TillageType": "Growing Season Cultivation"
											}
										]
									},
									"NApplicationList": {
										"NApplicationEvent": [
											{
												"NApplicationDate": "02/06/2005",
												"NApplicationType": "Urea (46-00-00)",
												"NApplicationAmount": 120.87991199397563,
												"NApplicationMethod": "Incorporate / Inject",
												"EEP": "None"
											}
										]
									},
									"OMADApplicationList": {
										"OMADApplicationEvent": []
									},
									"IrrigationList": {
										"IrrigationEvent": []
									},
									"BurnEvent": {
										"BurnTime": "No burning"
									},
									"LimingEvent": null,
									"GrazingList": {
										"GrazingEvent": []
									},
									"Prune": "No",
									"Renew": "No"
								}
							]
						},
						{
							"@Year": 2006,
							"Crop": [
								{
									"@CropNumber": 1,
									"CropName": "Soybean",
									"PlantingDate": "05/04/2006",
									"ContinueFromPreviousYear": "N",
									"HarvestList": {
										"HarvestEvent": [
											{
												"HarvestDate": "09/19/2006",
												"Grain": "Yes",
												"yield": 0.0,
												"StrawStoverHayRemoval": 0
											}
										]
									},
									"TillageList": {
										"TillageEvent": [
											{
												"TillageDate": "02/04/2006",
												"TillageType": "Mulch Tillage"
											},
											{
												"TillageDate": "03/04/2006",
												"TillageType": "Growing Season Cultivation"
											},
											{
												"TillageDate": "03/07/2006",
												"TillageType": "Growing Season Cultivation"
											},
											{
												"TillageDate": "03/08/2006",
												"TillageType": "Growing Season Cultivation"
											},
											{
												"TillageDate": "10/04/2006",
												"TillageType": "Ridge Tillage"
											}
										]
									},
									"NApplicationList": {
										"NApplicationEvent": [
											{
												"NApplicationDate": "03/04/2006",
												"NApplicationType": "Urea (46-00-00)",
												"NApplicationAmount": 15.049989042929657,
												"NApplicationMethod": "Incorporate / Inject",
												"EEP": "None"
											},
											{
												"NApplicationDate": "06/03/2006",
												"NApplicationType": "Urea (46-00-00)",
												"NApplicationAmount": 22.999983254975509,
												"NApplicationMethod": "Incorporate / Inject",
												"EEP": "None"
											}
										]
									},
									"OMADApplicationList": {
										"OMADApplicationEvent": []
									},
									"IrrigationList": {
										"IrrigationEvent": []
									},
									"BurnEvent": {
										"BurnTime": "No burning"
									},
									"LimingEvent": null,
									"GrazingList": {
										"GrazingEvent": []
									},
									"Prune": "No",
									"Renew": "No"
								}
							]
						},
						{
							"@Year": 2007,
							"Crop": [
								{
									"@CropNumber": 1,
									"CropName": "Sorghum",
									"PlantingDate": "03/21/2007",
									"ContinueFromPreviousYear": "N",
									"HarvestList": {
										"HarvestEvent": [
											{
												"HarvestDate": "07/16/2007",
												"Grain": "Yes",
												"yield": 0.0,
												"StrawStoverHayRemoval": 0
											}
										]
									},
									"TillageList": {
										"TillageEvent": [
											{
												"TillageDate": "02/08/2007",
												"TillageType": "Growing Season Cultivation"
											},
											{
												"TillageDate": "02/14/2007",
												"TillageType": "Growing Season Cultivation"
											},
											{
												"TillageDate": "08/17/2007",
												"TillageType": "Growing Season Cultivation"
											},
											{
												"TillageDate": "09/14/2007",
												"TillageType": "Growing Season Cultivation"
											},
											{
												"TillageDate": "11/07/2007",
												"TillageType": "Growing Season Cultivation"
											}
										]
									},
									"NApplicationList": {
										"NApplicationEvent": [
											{
												"NApplicationDate": "02/08/2007",
												"NApplicationType": "Urea (46-00-00)",
												"NApplicationAmount": 118.8999134355038,
												"NApplicationMethod": "Incorporate / Inject",
												"EEP": "None"
											},
											{
												"NApplicationDate": "04/19/2007",
												"NApplicationType": "Urea (46-00-00)",
												"NApplicationAmount": 45.999966509951018,
												"NApplicationMethod": "Incorporate / Inject",
												"EEP": "None"
											}
										]
									},
									"OMADApplicationList": {
										"OMADApplicationEvent": []
									},
									"IrrigationList": {
										"IrrigationEvent": []
									},
									"BurnEvent": {
										"BurnTime": "No burning"
									},
									"LimingEvent": null,
									"GrazingList": {
										"GrazingEvent": []
									},
									"Prune": "No",
									"Renew": "No"
								}
							]
						},
						{
							"@Year": 2008,
							"Crop": [
								{
									"@CropNumber": 1,
									"CropName": "Sorghum",
									"PlantingDate": "04/19/2008",
									"ContinueFromPreviousYear": "N",
									"HarvestList": {
										"HarvestEvent": [
											{
												"HarvestDate": "08/08/2008",
												"Grain": "Yes",
												"yield": 0.0,
												"StrawStoverHayRemoval": 0
											}
										]
									},
									"TillageList": {
										"TillageEvent": [
											{
												"TillageDate": "02/07/2008",
												"TillageType": "Growing Season Cultivation"
											},
											{
												"TillageDate": "03/10/2008",
												"TillageType": "Ridge Tillage"
											},
											{
												"TillageDate": "07/08/2008",
												"TillageType": "Growing Season Cultivation"
											},
											{
												"TillageDate": "07/10/2008",
												"TillageType": "Growing Season Cultivation"
											},
											{
												"TillageDate": "10/18/2008",
												"TillageType": "Growing Season Cultivation"
											}
										]
									},
									"NApplicationList": {
										"NApplicationEvent": [
											{
												"NApplicationDate": "02/06/2008",
												"NApplicationType": "Urea (46-00-00)",
												"NApplicationAmount": 120.87991199397563,
												"NApplicationMethod": "Incorporate / Inject",
												"EEP": "None"
											}
										]
									},
									"OMADApplicationList": {
										"OMADApplicationEvent": []
									},
									"IrrigationList": {
										"IrrigationEvent": []
									},
									"BurnEvent": {
										"BurnTime": "No burning"
									},
									"LimingEvent": null,
									"GrazingList": {
										"GrazingEvent": []
									},
									"Prune": "No",
									"Renew": "No"
								}
							]
						},
						{
							"@Year": 2009,
							"Crop": [
								{
									"@CropNumber": 1,
									"CropName": "Soybean",
									"PlantingDate": "05/04/2009",
									"ContinueFromPreviousYear": "N",
									"HarvestList": {
										"HarvestEvent": [
											{
												"HarvestDate": "09/19/2009",
												"Grain": "Yes",
												"yield": 0.0,
												"StrawStoverHayRemoval": 0
											}
										]
									},
									"TillageList": {
										"TillageEvent": [
											{
												"TillageDate": "02/04/2009",
												"TillageType": "Mulch Tillage"
											},
											{
												"TillageDate": "03/04/2009",
												"TillageType": "Growing Season Cultivation"
											},
											{
												"TillageDate": "03/07/2009",
												"TillageType": "Growing Season Cultivation"
											},
											{
												"TillageDate": "03/08/2009",
												"TillageType": "Growing Season Cultivation"
											},
											{
												"TillageDate": "10/04/2009",
												"TillageType": "Ridge Tillage"
											}
										]
									},
									"NApplicationList": {
										"NApplicationEvent": [
											{
												"NApplicationDate": "03/04/2009",
												"NApplicationType": "Urea (46-00-00)",
												"NApplicationAmount": 15.049989042929657,
												"NApplicationMethod": "Incorporate / Inject",
												"EEP": "None"
											},
											{
												"NApplicationDate": "06/03/2009",
												"NApplicationType": "Urea (46-00-00)",
												"NApplicationAmount": 22.999983254975509,
												"NApplicationMethod": "Incorporate / Inject",
												"EEP": "None"
											}
										]
									},
									"OMADApplicationList": {
										"OMADApplicationEvent": []
									},
									"IrrigationList": {
										"IrrigationEvent": []
									},
									"BurnEvent": {
										"BurnTime": "No burning"
									},
									"LimingEvent": null,
									"GrazingList": {
										"GrazingEvent": []
									},
									"Prune": "No",
									"Renew": "No"
								}
							]
						},
						{
							"@Year": 2010,
							"Crop": [
								{
									"@CropNumber": 1,
									"CropName": "Sorghum",
									"PlantingDate": "03/21/2010",
									"ContinueFromPreviousYear": "N",
									"HarvestList": {
										"HarvestEvent": [
											{
												"HarvestDate": "07/16/2010",
												"Grain": "Yes",
												"yield": 0.0,
												"StrawStoverHayRemoval": 0
											}
										]
									},
									"TillageList": {
										"TillageEvent": [
											{
												"TillageDate": "02/08/2010",
												"TillageType": "Growing Season Cultivation"
											},
											{
												"TillageDate": "02/14/2010",
												"TillageType": "Growing Season Cultivation"
											},
											{
												"TillageDate": "08/17/2010",
												"TillageType": "Growing Season Cultivation"
											},
											{
												"TillageDate": "09/14/2010",
												"TillageType": "Growing Season Cultivation"
											},
											{
												"TillageDate": "11/07/2010",
												"TillageType": "Growing Season Cultivation"
											}
										]
									},
									"NApplicationList": {
										"NApplicationEvent": [
											{
												"NApplicationDate": "02/08/2010",
												"NApplicationType": "Urea (46-00-00)",
												"NApplicationAmount": 118.8999134355038,
												"NApplicationMethod": "Incorporate / Inject",
												"EEP": "None"
											},
											{
												"NApplicationDate": "04/19/2010",
												"NApplicationType": "Urea (46-00-00)",
												"NApplicationAmount": 45.999966509951018,
												"NApplicationMethod": "Incorporate / Inject",
												"EEP": "None"
											}
										]
									},
									"OMADApplicationList": {
										"OMADApplicationEvent": []
									},
									"IrrigationList": {
										"IrrigationEvent": []
									},
									"BurnEvent": {
										"BurnTime": "No burning"
									},
									"LimingEvent": null,
									"GrazingList": {
										"GrazingEvent": []
									},
									"Prune": "No",
									"Renew": "No"
								}
							]
						},
						{
							"@Year": 2011,
							"Crop": [
								{
									"@CropNumber": 1,
									"CropName": "Sorghum",
									"PlantingDate": "04/19/2011",
									"ContinueFromPreviousYear": "N",
									"HarvestList": {
										"HarvestEvent": [
											{
												"HarvestDate": "08/08/2011",
												"Grain": "Yes",
												"yield": 0.0,
												"StrawStoverHayRemoval": 0
											}
										]
									},
									"TillageList": {
										"TillageEvent": [
											{
												"TillageDate": "02/07/2011",
												"TillageType": "Growing Season Cultivation"
											},
											{
												"TillageDate": "03/10/2011",
												"TillageType": "Ridge Tillage"
											},
											{
												"TillageDate": "07/08/2011",
												"TillageType": "Growing Season Cultivation"
											},
											{
												"TillageDate": "07/10/2011",
												"TillageType": "Growing Season Cultivation"
											},
											{
												"TillageDate": "10/18/2011",
												"TillageType": "Growing Season Cultivation"
											}
										]
									},
									"NApplicationList": {
										"NApplicationEvent": [
											{
												"NApplicationDate": "02/06/2011",
												"NApplicationType": "Urea (46-00-00)",
												"NApplicationAmount": 120.87991199397563,
												"NApplicationMethod": "Incorporate / Inject",
												"EEP": "None"
											}
										]
									},
									"OMADApplicationList": {
										"OMADApplicationEvent": []
									},
									"IrrigationList": {
										"IrrigationEvent": []
									},
									"BurnEvent": {
										"BurnTime": "No burning"
									},
									"LimingEvent": null,
									"GrazingList": {
										"GrazingEvent": []
									},
									"Prune": "No",
									"Renew": "No"
								}
							]
						},
						{
							"@Year": 2012,
							"Crop": [
								{
									"@CropNumber": 1,
									"CropName": "Soybean",
									"PlantingDate": "05/04/2012",
									"ContinueFromPreviousYear": "N",
									"HarvestList": {
										"HarvestEvent": [
											{
												"HarvestDate": "09/19/2012",
												"Grain": "Yes",
												"yield": 0.0,
												"StrawStoverHayRemoval": 0
											}
										]
									},
									"TillageList": {
										"TillageEvent": [
											{
												"TillageDate": "02/04/2012",
												"TillageType": "Mulch Tillage"
											},
											{
												"TillageDate": "03/04/2012",
												"TillageType": "Growing Season Cultivation"
											},
											{
												"TillageDate": "03/07/2012",
												"TillageType": "Growing Season Cultivation"
											},
											{
												"TillageDate": "03/08/2012",
												"TillageType": "Growing Season Cultivation"
											},
											{
												"TillageDate": "10/04/2012",
												"TillageType": "Ridge Tillage"
											}
										]
									},
									"NApplicationList": {
										"NApplicationEvent": [
											{
												"NApplicationDate": "03/04/2012",
												"NApplicationType": "Urea (46-00-00)",
												"NApplicationAmount": 15.049989042929657,
												"NApplicationMethod": "Incorporate / Inject",
												"EEP": "None"
											},
											{
												"NApplicationDate": "06/03/2012",
												"NApplicationType": "Urea (46-00-00)",
												"NApplicationAmount": 22.999983254975509,
												"NApplicationMethod": "Incorporate / Inject",
												"EEP": "None"
											}
										]
									},
									"OMADApplicationList": {
										"OMADApplicationEvent": []
									},
									"IrrigationList": {
										"IrrigationEvent": []
									},
									"BurnEvent": {
										"BurnTime": "No burning"
									},
									"LimingEvent": null,
									"GrazingList": {
										"GrazingEvent": []
									},
									"Prune": "No",
									"Renew": "No"
								}
							]
						},
						{
							"@Year": 2013,
							"Crop": [
								{
									"@CropNumber": 1,
									"CropName": "Sorghum",
									"PlantingDate": "03/21/2013",
									"ContinueFromPreviousYear": "N",
									"HarvestList": {
										"HarvestEvent": [
											{
												"HarvestDate": "07/16/2013",
												"Grain": "Yes",
												"yield": 0.0,
												"StrawStoverHayRemoval": 0
											}
										]
									},
									"TillageList": {
										"TillageEvent": [
											{
												"TillageDate": "02/08/2013",
												"TillageType": "Growing Season Cultivation"
											},
											{
												"TillageDate": "02/14/2013",
												"TillageType": "Growing Season Cultivation"
											},
											{
												"TillageDate": "08/17/2013",
												"TillageType": "Growing Season Cultivation"
											},
											{
												"TillageDate": "09/14/2013",
												"TillageType": "Growing Season Cultivation"
											},
											{
												"TillageDate": "11/07/2013",
												"TillageType": "Growing Season Cultivation"
											}
										]
									},
									"NApplicationList": {
										"NApplicationEvent": [
											{
												"NApplicationDate": "02/08/2013",
												"NApplicationType": "Urea (46-00-00)",
												"NApplicationAmount": 118.8999134355038,
												"NApplicationMethod": "Incorporate / Inject",
												"EEP": "None"
											},
											{
												"NApplicationDate": "04/19/2013",
												"NApplicationType": "Urea (46-00-00)",
												"NApplicationAmount": 45.999966509951018,
												"NApplicationMethod": "Incorporate / Inject",
												"EEP": "None"
											}
										]
									},
									"OMADApplicationList": {
										"OMADApplicationEvent": []
									},
									"IrrigationList": {
										"IrrigationEvent": []
									},
									"BurnEvent": {
										"BurnTime": "No burning"
									},
									"LimingEvent": null,
									"GrazingList": {
										"GrazingEvent": []
									},
									"Prune": "No",
									"Renew": "No"
								}
							]
						},
						{
							"@Year": 2014,
							"Crop": [
								{
									"@CropNumber": 1,
									"CropName": "Sorghum",
									"PlantingDate": "04/19/2014",
									"ContinueFromPreviousYear": "N",
									"HarvestList": {
										"HarvestEvent": [
											{
												"HarvestDate": "08/08/2014",
												"Grain": "Yes",
												"yield": 0.0,
												"StrawStoverHayRemoval": 0
											}
										]
									},
									"TillageList": {
										"TillageEvent": [
											{
												"TillageDate": "02/07/2014",
												"TillageType": "Growing Season Cultivation"
											},
											{
												"TillageDate": "03/10/2014",
												"TillageType": "Ridge Tillage"
											},
											{
												"TillageDate": "07/08/2014",
												"TillageType": "Growing Season Cultivation"
											},
											{
												"TillageDate": "07/10/2014",
												"TillageType": "Growing Season Cultivation"
											},
											{
												"TillageDate": "10/18/2014",
												"TillageType": "Growing Season Cultivation"
											}
										]
									},
									"NApplicationList": {
										"NApplicationEvent": [
											{
												"NApplicationDate": "02/06/2014",
												"NApplicationType": "Urea (46-00-00)",
												"NApplicationAmount": 120.87991199397563,
												"NApplicationMethod": "Incorporate / Inject",
												"EEP": "None"
											}
										]
									},
									"OMADApplicationList": {
										"OMADApplicationEvent": []
									},
									"IrrigationList": {
										"IrrigationEvent": []
									},
									"BurnEvent": {
										"BurnTime": "No burning"
									},
									"LimingEvent": null,
									"GrazingList": {
										"GrazingEvent": []
									},
									"Prune": "No",
									"Renew": "No"
								}
							]
						},
						{
							"@Year": 2015,
							"Crop": [
								{
									"@CropNumber": 1,
									"CropName": "Soybean",
									"PlantingDate": "05/04/2015",
									"ContinueFromPreviousYear": "N",
									"HarvestList": {
										"HarvestEvent": [
											{
												"HarvestDate": "09/19/2015",
												"Grain": "Yes",
												"yield": 0.0,
												"StrawStoverHayRemoval": 0
											}
										]
									},
									"TillageList": {
										"TillageEvent": [
											{
												"TillageDate": "02/04/2015",
												"TillageType": "Mulch Tillage"
											},
											{
												"TillageDate": "03/04/2015",
												"TillageType": "Growing Season Cultivation"
											},
											{
												"TillageDate": "03/07/2015",
												"TillageType": "Growing Season Cultivation"
											},
											{
												"TillageDate": "03/08/2015",
												"TillageType": "Growing Season Cultivation"
											},
											{
												"TillageDate": "07/08/2015",
												"TillageType": "Growing Season Cultivation"
											},
											{
												"TillageDate": "07/10/2015",
												"TillageType": "Growing Season Cultivation"
											},
											{
												"TillageDate": "10/18/2015",
												"TillageType": "Growing Season Cultivation"
											}
										]
									},
									"NApplicationList": {
										"NApplicationEvent": [
											{
												"NApplicationDate": "03/04/2015",
												"NApplicationType": "Urea (46-00-00)",
												"NApplicationAmount": 15.049989042929657,
												"NApplicationMethod": "Incorporate / Inject",
												"EEP": "None"
											},
											{
												"NApplicationDate": "06/03/2015",
												"NApplicationType": "Urea (46-00-00)",
												"NApplicationAmount": 22.999983254975509,
												"NApplicationMethod": "Incorporate / Inject",
												"EEP": "None"
											}
										]
									},
									"OMADApplicationList": {
										"OMADApplicationEvent": []
									},
									"IrrigationList": {
										"IrrigationEvent": []
									},
									"BurnEvent": {
										"BurnTime": "No burning"
									},
									"LimingEvent": null,
									"GrazingList": {
										"GrazingEvent": []
									},
									"Prune": "No",
									"Renew": "No"
								}
							]
						},
						{
							"@Year": 2016,
							"Crop": [
								{
									"@CropNumber": 1,
									"CropName": "Soybean",
									"PlantingDate": "05/04/2016",
									"ContinueFromPreviousYear": "N",
									"HarvestList": {
										"HarvestEvent": [
											{
												"HarvestDate": "09/19/2016",
												"Grain": "Yes",
												"yield": 0.0,
												"StrawStoverHayRemoval": 0
											}
										]
									},
									"TillageList": {
										"TillageEvent": [
											{
												"TillageDate": "02/04/2016",
												"TillageType": "Mulch Tillage"
											},
											{
												"TillageDate": "03/04/2016",
												"TillageType": "Growing Season Cultivation"
											},
											{
												"TillageDate": "03/07/2016",
												"TillageType": "Growing Season Cultivation"
											},
											{
												"TillageDate": "03/08/2016",
												"TillageType": "Growing Season Cultivation"
											},
											{
												"TillageDate": "10/04/2016",
												"TillageType": "Ridge Tillage"
											}
										]
									},
									"NApplicationList": {
										"NApplicationEvent": [
											{
												"NApplicationDate": "03/04/2016",
												"NApplicationType": "Urea (46-00-00)",
												"NApplicationAmount": 15.049989042929657,
												"NApplicationMethod": "Incorporate / Inject",
												"EEP": "None"
											},
											{
												"NApplicationDate": "06/03/2016",
												"NApplicationType": "Urea (46-00-00)",
												"NApplicationAmount": 22.999983254975509,
												"NApplicationMethod": "Incorporate / Inject",
												"EEP": "None"
											}
										]
									},
									"OMADApplicationList": {
										"OMADApplicationEvent": []
									},
									"IrrigationList": {
										"IrrigationEvent": []
									},
									"BurnEvent": {
										"BurnTime": "No burning"
									},
									"LimingEvent": null,
									"GrazingList": {
										"GrazingEvent": []
									},
									"Prune": "No",
									"Renew": "No"
								}
							]
						},
						{
							"@Year": 2017,
							"Crop": [
								{
									"@CropNumber": 1,
									"CropName": "Sorghum",
									"PlantingDate": "03/21/2017",
									"ContinueFromPreviousYear": "N",
									"HarvestList": {
										"HarvestEvent": [
											{
												"HarvestDate": "07/16/2017",
												"Grain": "Yes",
												"yield": 0.0,
												"StrawStoverHayRemoval": 0
											}
										]
									},
									"TillageList": {
										"TillageEvent": [
											{
												"TillageDate": "02/08/2017",
												"TillageType": "Growing Season Cultivation"
											},
											{
												"TillageDate": "02/14/2017",
												"TillageType": "Growing Season Cultivation"
											},
											{
												"TillageDate": "08/17/2017",
												"TillageType": "Growing Season Cultivation"
											},
											{
												"TillageDate": "09/14/2017",
												"TillageType": "Growing Season Cultivation"
											},
											{
												"TillageDate": "11/07/2017",
												"TillageType": "Growing Season Cultivation"
											}
										]
									},
									"NApplicationList": {
										"NApplicationEvent": [
											{
												"NApplicationDate": "02/08/2017",
												"NApplicationType": "Urea (46-00-00)",
												"NApplicationAmount": 118.8999134355038,
												"NApplicationMethod": "Incorporate / Inject",
												"EEP": "None"
											},
											{
												"NApplicationDate": "04/19/2017",
												"NApplicationType": "Urea (46-00-00)",
												"NApplicationAmount": 45.999966509951018,
												"NApplicationMethod": "Incorporate / Inject",
												"EEP": "None"
											}
										]
									},
									"OMADApplicationList": {
										"OMADApplicationEvent": []
									},
									"IrrigationList": {
										"IrrigationEvent": []
									},
									"BurnEvent": {
										"BurnTime": "No burning"
									},
									"LimingEvent": null,
									"GrazingList": {
										"GrazingEvent": []
									},
									"Prune": "No",
									"Renew": "No"
								}
							]
						}
					]
				},
				{
					"@Name": "3 Year Future Scenario",
					"CropYear": [
						{
							"@Year": 2018,
							"Crop": [
								{
									"@CropNumber": 1,
									"CropName": "Sorghum",
									"PlantingDate": "04/19/2018",
									"ContinueFromPreviousYear": "N",
									"HarvestList": {
										"HarvestEvent": [
											{
												"HarvestDate": "08/08/2018",
												"Grain": "Yes",
												"yield": 0.0,
												"StrawStoverHayRemoval": 0
											}
										]
									},
									"TillageList": {
										"TillageEvent": [
											{
												"TillageDate": "02/07/2018",
												"TillageType": "Growing Season Cultivation"
											},
											{
												"TillageDate": "03/10/2018",
												"TillageType": "Ridge Tillage"
											},
											{
												"TillageDate": "06/26/2019",
												"TillageType": "Growing Season Cultivation"
											},
											{
												"TillageDate": "06/28/2019",
												"TillageType": "Growing Season Cultivation"
											},
											{
												"TillageDate": "07/25/2019",
												"TillageType": "Growing Season Cultivation"
											},
											{
												"TillageDate": "10/04/2019",
												"TillageType": "Growing Season Cultivation"
											},
											{
												"TillageDate": "10/07/2019",
												"TillageType": "Growing Season Cultivation"
											},
											{
												"TillageDate": "12/05/2019",
												"TillageType": "Growing Season Cultivation"
											},
											{
												"TillageDate": "12/08/2019",
												"TillageType": "Growing Season Cultivation"
											}
										]
									},
									"NApplicationList": {
										"NApplicationEvent": [
											{
												"NApplicationDate": "02/06/2018",
												"NApplicationType": "Urea (46-00-00)",
												"NApplicationAmount": 120.87991199397563,
												"NApplicationMethod": "Incorporate / Inject",
												"EEP": "None"
											}
										]
									},
									"OMADApplicationList": {
										"OMADApplicationEvent": []
									},
									"IrrigationList": {
										"IrrigationEventAuto": []
									},
									"BurnEvent": {
										"BurnTime": "No burning"
									},
									"LimingEvent": null,
									"GrazingList": {
										"GrazingEvent": []
									},
									"Prune": "No",
									"Renew": "No"
								}
							]
						},				
						{
							"@Year": 2019,
							"Crop": [
								{
									"@CropNumber": 1,
									"CropName": "Sorghum",
									"PlantingDate": "03/18/2019",
									"ContinueFromPreviousYear": "N",
									"HarvestList": {
										"HarvestEvent": [
											{
												"HarvestDate": "07/13/2019",
												"Grain": "Yes",
												"yield": 0.0,
												"StrawStoverHayRemoval": 0
											}
										]
									},
									"TillageList": {
										"TillageEvent": [
											{
												"TillageDate": "01/10/2019",
												"TillageType": "Growing Season Cultivation"
											},
											{
												"TillageDate": "02/18/2019",
												"TillageType": "Growing Season Cultivation"
											},
											{
												"TillageDate": "02/20/2019",
												"TillageType": "Growing Season Cultivation"
											},
											{
												"TillageDate": "02/23/2019",
												"TillageType": "Growing Season Cultivation"
											},
											{
												"TillageDate": "02/24/2019",
												"TillageType": "Growing Season Cultivation"
											}
										]
									},
									"NApplicationList": {
										"NApplicationEvent": [
											{
												"NApplicationDate": "02/17/2019",
												"NApplicationType": "Urea (46-00-00)",
												"NApplicationAmount": 90.08993441046695,
												"NApplicationMethod": "Incorporate / Inject",
												"EEP": "None"
											},
											{
												"NApplicationDate": "04/29/2019",
												"NApplicationType": "Urea (46-00-00)",
												"NApplicationAmount": 45.999966509951018,
												"NApplicationMethod": "Incorporate / Inject",
												"EEP": "None"
											}
										]
									},
									"OMADApplicationList": {
										"OMADApplicationEvent": [
											{
												"OMADApplicationDate": "10/10/2019",
												"OMADType": "Chicken - Layer, Solid",
												"OMADAmount": 0.9999984562456808,
												"OMADPercentN": 0.022,
												"OMADCNRatio": 7.1
											},
											{
												"OMADApplicationDate": "02/18/2019",
												"OMADType": "Chicken - Layer, Solid",
												"OMADAmount": 0.4999992281228404,
												"OMADPercentN": 0.022,
												"OMADCNRatio": 7.1
											}
										]
									},
									"IrrigationList": {
										"IrrigationEventAuto": []
									},
									"BurnEvent": {
										"BurnTime": "No burning"
									},
									"LimingEvent": null,
									"GrazingList": {
										"GrazingEvent": []
									},
									"Prune": "No",
									"Renew": "No"
								}
							]
						},
						{
							"@Year": 2020,
							"Crop": [
								{
									"@CropNumber": 1,
									"CropName": "Sorghum",
									"PlantingDate": "03/18/2020",
									"ContinueFromPreviousYear": "N",
									"HarvestList": {
										"HarvestEvent": [
											{
												"HarvestDate": "07/13/2020",
												"Grain": "Yes",
												"yield": 0.0,
												"StrawStoverHayRemoval": 0
											}
										]
									},
									"TillageList": {
										"TillageEvent": [
											{
												"TillageDate": "01/10/2020",
												"TillageType": "Growing Season Cultivation"
											},
											{
												"TillageDate": "02/18/2020",
												"TillageType": "Growing Season Cultivation"
											},
											{
												"TillageDate": "02/20/2020",
												"TillageType": "Growing Season Cultivation"
											},
											{
												"TillageDate": "02/23/2020",
												"TillageType": "Growing Season Cultivation"
											},
											{
												"TillageDate": "02/24/2020",
												"TillageType": "Growing Season Cultivation"
											}
										]
									},
									"NApplicationList": {
										"NApplicationEvent": [
											{
												"NApplicationDate": "02/17/2020",
												"NApplicationType": "Urea (46-00-00)",
												"NApplicationAmount": 90.08993441046695,
												"NApplicationMethod": "Incorporate / Inject",
												"EEP": "None"
											},
											{
												"NApplicationDate": "04/29/2020",
												"NApplicationType": "Urea (46-00-00)",
												"NApplicationAmount": 45.999966509951018,
												"NApplicationMethod": "Incorporate / Inject",
												"EEP": "None"
											}
										]
									},
									"OMADApplicationList": {
										"OMADApplicationEvent": [
											{
												"OMADApplicationDate": "10/10/2020",
												"OMADType": "Chicken - Layer, Solid",
												"OMADAmount": 0.9999984562456808,
												"OMADPercentN": 0.022,
												"OMADCNRatio": 7.1
											},
											{
												"OMADApplicationDate": "02/18/2020",
												"OMADType": "Chicken - Layer, Solid",
												"OMADAmount": 0.4999992281228404,
												"OMADPercentN": 0.022,
												"OMADCNRatio": 7.1
											}
										]
									},
									"IrrigationList": {
										"IrrigationEventAuto": []
									},
									"BurnEvent": {
										"BurnTime": "No burning"
									},
									"LimingEvent": null,
									"GrazingList": {
										"GrazingEvent": []
									},
									"Prune": "No",
									"Renew": "No"
								}
							]
						}
					]
				}
      ]
   }
}